<?xml version="1.0" encoding="utf-8"?>
<!-- Generator: Adobe Illustrator 21.0.2, SVG Export Plug-In . SVG Version: 6.00 Build 0)  -->
<svg version="1.1" id="Layer_1" xmlns="http://www.w3.org/2000/svg" xmlns:xlink="http://www.w3.org/1999/xlink" x="0px" y="0px"
	 viewBox="0 0 2267.7 2252.3" style="enable-background:new 0 0 2267.7 2252.3;" xml:space="preserve">
<style type="text/css">
	.st0{fill:#606060;}
</style>
<g>
	<path class="st0" d="M2094.5,2210.9h-28.8l-13-19.3c-6-8.9-20.4-8.9-26.1-0.1l-13,19.4h-170.2l-13-19.2c-6.6-10-22.2-6.6-26.4-0.2
		l-13,19.3h-170.2l-13-19.3c-6.5-9.7-21.9-6.2-26.1-0.1l-13,19.4h-38.6c-200.8,0-374.7-72-516.8-214l-298.2-298.3l30.9-30.9
		c12.2-12.2,19-28.7,19-46.3s-6.8-34-19-46.4c-24.6-24.5-68-24.5-92.7,0l-30.8,30.9l-226.7-226.6l30.9-30.8
		c8.1-8.2,10.1-15.7,6.4-24.6c-4.4-10.5-15.4-18.7-25.2-18.7c-2,0-8.1,0-16.3,8.1l-30.8,30.9l-194.9-194.9l30.8-30.8
		c8.1-8.1,10.1-15.7,6.4-24.6c-4.3-10.5-15.3-18.7-25.1-18.7c-2,0-8.1,0-16.4,8.2l-30.8,30.7l-74.2-74.1
		c-69.3-69.3-69.3-182-0.1-251.4L738.9,106c43.2-43.2,74.4-61.6,104.4-61.6c76.9,0,77.8,92,78.9,189.4
		c0.8,65.9,1.5,140.5,19.8,196.4c42.8,130.9,264.2,150.5,392.4,150.5c73,0,139.7-5.9,182.8-11c52-6,100.1,9.5,138.7,43.9
		c38.9,34.6,59.6,80.5,59.6,132.7v562.9c0,152.9,144.2,233.8,283.7,312l49.6,28c155.4,89.8,223.6,145.2,223.6,298.7v85.2
		C2272.3,2131.2,2192.6,2210.9,2094.5,2210.9z M1886,2123.7h84.9c37-33.2,98.9-33.8,136.5-0.9c43.9-6.2,77.7-44,77.7-89.6V1948
		c0-101.3-27-134.8-179.9-223.1l-48.6-27.5c-146.3-82-328.4-184-328.4-388.1V746.4c0-27.3-9.8-49.4-30.3-67.5
		c-20.4-18.2-44-25.5-70.7-22.4c-45.3,5.3-115.6,11.5-192.8,11.5c-265.9,0-430.3-72.8-475.4-210.6c-22.5-68.6-23.3-150.3-24.1-222.5
		c-0.3-31-0.7-70.7-4.1-94.3c-7,5.4-16.9,13.8-30.3,27.2L118.2,850.3c-35.3,35.3-35.3,92.8-0.1,128.1l18.2,18.2
		c54.4-23.7,123.6,6.8,147.2,63.9c11.5,27.8,11.2,56.9-0.2,83.1l82.8,82.9c54.5-23.4,123.5,6.8,147.2,64.1
		c11.5,27.8,11.1,56.9-0.2,83.1l113.5,113.5c56.9-30.8,133.6-20.7,180.7,26.3c28.8,28.8,44.6,67.2,44.6,108
		c0,25.8-6.3,50.7-18.2,72.7l241.1,241.1c124.2,124,275.9,187.4,451,188.4c37.2-33.5,100-33.5,137.5,0h84.9
		C1785.8,2090.2,1848.6,2090.1,1886,2123.7z"/>
	<path class="st0" d="M2228.7,2026.7h-521c-200.9,0-374.8-72-516.8-214.2l-203.2-203c-45.1-45.2-78.3-127.6-113.4-214.8
		c-30.3-75.3-61.6-153.2-94-185.6L242.4,671.2l61.8-61.6l537.7,537.8c45.1,45,78.3,127.5,113.4,214.8c30.2,75.3,61.5,153.2,94,185.7
		l203.1,203.1c125.2,125.1,278.3,188.5,455.2,188.5h521v87.2H2228.7z"/>
	<rect x="1502.6" y="798.7" class="st0" width="169.2" height="87.3"/>
	<rect x="1502.6" y="1067" class="st0" width="169.2" height="87.3"/>
	<rect x="1502.6" y="1335.3" class="st0" width="169.2" height="87.3"/>
	<path class="st0" d="M1715.5,959.4h-87.2V500.6l-217.6,157.9l-51.7-70.3l215.7-158.8c27-19.8,62.2-22.8,92.3-7.6
		c29.8,15.1,48.4,45.3,48.4,78.9L1715.5,959.4L1715.5,959.4z"/>
</g>
</svg>
