<?xml version="1.0" encoding="utf-8"?>
<!-- Generator: Adobe Illustrator 21.0.2, SVG Export Plug-In . SVG Version: 6.00 Build 0)  -->
<svg version="1.1" id="Layer_1" xmlns="http://www.w3.org/2000/svg" xmlns:xlink="http://www.w3.org/1999/xlink" x="0px" y="0px"
	 viewBox="0 0 3372.6 3375.6" style="enable-background:new 0 0 3372.6 3375.6;" xml:space="preserve">
<style type="text/css">
	.st0{fill:#606060;}
</style>
<g>
	<g>
		<path class="st0" d="M2680.7,3376.5H700.1c-79.2,0-143.6-56.5-143.6-126.1v-1428c0-69.6,64.4-126.1,143.5-126.1h1980.6
			c79.2,0,143.6,56.6,143.6,126.1v1428C2824.3,3320,2759.9,3376.5,2680.7,3376.5z M687.3,3243.2c2.6,1.3,6.9,2.6,12.8,2.6h1980.6
			c6,0,10.3-1.4,12.8-2.6V1829.6c-2.6-1.3-6.9-2.6-12.8-2.6H700.1c-5.9,0-10.2,1.4-12.8,2.6V3243.2z"/>
	</g>
	<g>
		<path class="st0" d="M2211.6,3118.3H1169.2c-79.2,0-143.5-56.6-143.5-126.1v-911.5c0-69.5,64.4-126.1,143.5-126.1h1042.4
			c79.2,0,143.6,56.6,143.6,126.1v911.5C2355.2,3061.7,2290.8,3118.3,2211.6,3118.3z M1156.4,2984.9c2.6,1.3,6.9,2.6,12.8,2.6
			h1042.4c6,0,10.3-1.4,12.8-2.6v-897.1c-2.6-1.3-6.9-2.6-12.8-2.6H1169.2c-5.9,0-10.2,1.4-12.8,2.6L1156.4,2984.9L1156.4,2984.9z"
			/>
	</g>
	<g>
		<path class="st0" d="M760.5,1792.2c-35.1,0-64.1-27.9-65.3-63.2c-26-780.5,315.6-943.3,330.1-949.8c32.9-14.8,71.6-0.1,86.4,32.8
			c14.7,32.6,0.4,70.9-31.9,86c-6.5,3.3-276.5,148.6-254,826.7c1.2,36.1-27.1,66.3-63.2,67.5
			C761.9,1792.2,761.2,1792.2,760.5,1792.2z"/>
	</g>
	<g>
		<path class="st0" d="M1190.9,952.7c-108.7,0-197.2-88.5-197.2-197.2s88.5-197.2,197.2-197.2c108.7,0,197.2,88.5,197.2,197.2
			C1388.1,864.3,1299.6,952.7,1190.9,952.7z M1190.9,689.1c-36.6,0-66.4,29.8-66.4,66.5c0,36.6,29.8,66.4,66.4,66.4
			c36.7,0,66.5-29.8,66.5-66.4C1257.3,718.9,1227.5,689.1,1190.9,689.1z"/>
	</g>
	<g>
		<path class="st0" d="M2638,1801.4c-33.7,0-62-26.7-65.1-60.5c-0.2-2.6-0.3-6.2-0.3-8.8c0-251.4-183.1-470.3-445.3-530.8
			c-29.7-6.8-50.7-33.2-50.7-63.7V975c0-24.5,13.7-47,35.6-58.2c75.1-38.4,136.1-109.3,171.8-199.6c11.5-29.2,42-46.1,72.9-40.2
			c2.1,0.4,3.8,0.6,5.1,0.6c29.8,0,63.1-46.4,63.1-108.5c0-61.4-33-107.8-62.5-108.4c-29.2-0.5-54.4-20.3-62-48.5
			c-44.9-167.8-171.2-280.6-314.3-280.6c-143,0-269.3,112.8-314.3,280.6c-7.6,28.2-32.8,47.9-62,48.4c-29.5,0.5-62.5,47-62.5,108.4
			c0,62.1,33.3,108.5,63.1,108.5c1.3,0,2.9-0.2,4.9-0.6c30.8-5.8,61.5,11,73,40.2c35.7,90.3,96.7,161.2,171.8,199.6
			c21.8,11.2,35.6,33.6,35.6,58.2v162.6c0,30.4-21,56.8-50.7,63.7c-262.2,60.6-445.3,279.4-445.3,532.2c0,36.1-29.2,66.1-65.3,66.1
			s-65.3-28.5-65.3-64.6c0-298.7,201.4-557.7,495.9-647.5v-74.7c-75.3-47.9-137.7-119.4-180.2-206.5
			c-96.2-15-168.2-113.8-168.2-237.2c0-110.8,58.9-202.5,141-230.4c69.7-203.7,237.6-337.7,428.5-337.7s358.8,134.1,428.5,337.7
			c82.1,27.9,141.1,119.6,141.1,230.4c0,123.4-72.1,222.2-168.3,237.2c-42.4,87.1-104.8,158.6-180.1,206.5v74.7
			c294.5,89.8,496,348.8,496,646c0,0.9,0,2.6-0.1,3.6c0,34.9-27.4,62.7-62.4,64.2C2640,1801.4,2639,1801.4,2638,1801.4z"/>
	</g>
</g>
</svg>
