<?xml version="1.0" encoding="utf-8"?>
<!-- Generator: Adobe Illustrator 21.0.2, SVG Export Plug-In . SVG Version: 6.00 Build 0)  -->
<svg version="1.1" id="Layer_1" xmlns="http://www.w3.org/2000/svg" xmlns:xlink="http://www.w3.org/1999/xlink" x="0px" y="0px"
	 viewBox="0 0 3053.6 3061.4" style="enable-background:new 0 0 3053.6 3061.4;" xml:space="preserve">
<style type="text/css">
	.st0{fill:#606060;}
</style>
<g>
	<path class="st0" d="M956.5,1718.2c-141.8,0-257.1,115.3-257.1,257.1s115.4,257.1,257.1,257.1c141.8,0,257.2-115.3,257.2-257.1
		S1098.3,1718.2,956.5,1718.2z M956.5,2119c-79.3,0-143.7-64.5-143.7-143.7s64.5-143.7,143.7-143.7c79.3,0,143.8,64.5,143.8,143.7
		S1035.8,2119,956.5,2119z"/>
	<path class="st0" d="M2305.6,170c-98.8-22-196.7-32.4-291.3-42.4c-17.4-1.8-34.9-3.7-52.5-5.6C1903.3,45,1807.8,1.4,1695,1.4
		h-328.2c-115.4,0-212.5,43.6-271.1,120.7c-110.9,12.8-221,27.3-340.2,53.9c-197.6,46.8-358.4,255.8-358.4,466v1524.8
		c0,213.3,160.8,425,359.1,472c256.7,57.2,518.1,86.3,776.8,86.3s520.1-29,777.5-86.4c195.3-46.3,354.2-257.9,354.2-471.8V642
		C2664.8,428.6,2504,216.9,2305.6,170z M2551.4,2166.8c0,144-107.3,323.6-266.2,361.3c-497.2,110.9-1007.7,110.7-1503.5,0.2
		c-147-34.8-271.2-200.3-271.2-361.4v-1041c63.6,94.7,150.1,186.1,250.1,291.9c28.5,30.1,58.4,61.7,89.5,95.2
		c34.9,37.3,108.2,75.8,170.6,75.8h1020.5c62.3,0,135.6-38.4,170.7-75.7c32.2-34.7,63.2-67.4,92.7-98.5
		c98.6-104,183.9-193.9,246.8-287.5V2166.8z M510.6,796.6c4.7-12.9,26.5-38.6,43.6-41.3c368.7-54.3,680-79.6,979.6-79.6
		c298.7,0,608,25.1,973.2,78.8c17.2,2.7,39.6,29.2,44.3,42c-10.4,204-137.4,337.9-328.9,539.9c-29.8,31.4-61,64.4-93.3,99.1
		c-16.8,17.9-60.6,39.8-87.8,39.8H1020.7c-27.2,0-71-21.9-87.6-39.8c-31.3-33.6-61.3-65.4-90.1-95.8
		C649.4,1135.3,521.1,999.7,510.6,796.6z M2551.4,649.9c-9-3.5-18.2-6-27.5-7.4c-371.1-54.6-685.7-80.1-990-80.1
		c-305.3,0-621.8,25.7-996.4,80.8c-9.2,1.4-18.2,3.8-27,7.1V642c0-158,124.2-320.9,270.4-355.5c122.2-27.2,236.9-41.4,353.4-54.7
		l27.6-3.2l14.4-23.7c34.8-57.3,104.3-90.1,190.6-90.1h328.2c84.8,0,150.9,32,186.3,90.1l14.4,23.7l27.5,3.2
		c26.5,3,52.9,5.8,79.1,8.6c95.7,10.1,186.1,19.7,277.8,40.2c147,34.8,271.2,200.3,271.2,361.4V649.9z"/>
	<path class="st0" d="M2105.3,1718.2c-141.8,0-257.2,115.3-257.2,257.1s115.4,257.1,257.2,257.1s257.1-115.3,257.1-257.1
		C2362.4,1833.5,2247.1,1718.2,2105.3,1718.2z M2105.3,2119c-79.3,0-143.8-64.5-143.8-143.7s64.5-143.7,143.8-143.7
		s143.7,64.5,143.7,143.7S2184.6,2119,2105.3,2119z"/>
	<path class="st0" d="M2137.9,2796c-22.1-22.1-58-22.1-80.2,0s-22.2,58,0,80.2l170.1,170.1c11.1,11.1,25.6,16.6,40.1,16.6
		s29-5.5,40.1-16.6c22.1-22.1,22.1-58,0-80.2L2137.9,2796z"/>
	<path class="st0" d="M923.9,2796l-170.1,170.1c-22.2,22.1-22.2,58,0,80.2c11.1,11.1,25.6,16.6,40.1,16.6s29-5.5,40.1-16.6
		l170.1-170.2c22.1-22.1,22.1-58,0-80.2C981.9,2773.8,946,2773.8,923.9,2796z"/>
</g>
</svg>
