<?xml version="1.0" encoding="utf-8"?>
<!-- Generator: Adobe Illustrator 17.1.0, SVG Export Plug-In . SVG Version: 6.00 Build 0)  -->
<!DOCTYPE svg PUBLIC "-//W3C//DTD SVG 1.1//EN" "http://www.w3.org/Graphics/SVG/1.1/DTD/svg11.dtd">
<svg version="1.1" id="Layer_1" xmlns="http://www.w3.org/2000/svg" xmlns:xlink="http://www.w3.org/1999/xlink" x="0px" y="0px"
	 viewBox="690 0 1454.6 1417.3" enable-background="new 690 0 1454.6 1417.3" xml:space="preserve">
<g opacity="0.4">
	<g>
		<g>
			<path fill="#FFFFFF" d="M1417.3,1370.3c-89.3,0-176-17.5-257.6-52c-78.8-33.3-149.6-81-210.3-141.8S841,1045,807.6,966.2
				c-34.5-81.6-52-168.2-52-257.6s17.5-176,52-257.6c33.3-78.8,81-149.6,141.8-210.3C1010.2,180,1081,132.3,1159.8,99
				c81.6-34.5,168.2-52,257.6-52s176,17.5,257.6,52c78.8,33.3,149.6,81,210.3,141.8c60.8,60.8,108.5,131.5,141.8,210.3
				c34.5,81.6,52,168.2,52,257.6s-17.5,176-52,257.6c-33.3,78.8-81,149.6-141.8,210.3c-60.8,60.8-131.5,108.5-210.3,141.8
				C1593.3,1352.9,1506.7,1370.3,1417.3,1370.3z"/>
			<path fill="none" stroke="#FFFFFF" stroke-width="16" stroke-miterlimit="10" d="M1417.3,1370.3c-89.3,0-176-17.5-257.6-52
				c-78.8-33.3-149.6-81-210.3-141.8S841,1045,807.6,966.2c-34.5-81.6-52-168.2-52-257.6s17.5-176,52-257.6
				c33.3-78.8,81-149.6,141.8-210.3C1010.2,180,1081,132.3,1159.8,99c81.6-34.5,168.2-52,257.6-52s176,17.5,257.6,52
				c78.8,33.3,149.6,81,210.3,141.8c60.8,60.8,108.5,131.5,141.8,210.3c34.5,81.6,52,168.2,52,257.6s-17.5,176-52,257.6
				c-33.3,78.8-81,149.6-141.8,210.3c-60.8,60.8-131.5,108.5-210.3,141.8C1593.3,1352.9,1506.7,1370.3,1417.3,1370.3z"/>
		</g>
		<g>
			<path d="M1417.3,1401c-381.8,0-692.4-310.6-692.4-692.4c0-382.1,310.6-693,692.4-693s692.4,310.9,692.4,693
				C2109.7,1090.4,1799.1,1401,1417.3,1401z M1417.3,73c-350.2,0-635,285.2-635,635.7c0,350.2,284.9,635,635,635
				c350.2,0,635-284.9,635-635c0-85.5-16.8-168.6-50-247c-32-75.7-77.9-143.7-136.3-202.1c-58.4-58.5-126.3-104.4-201.9-136.5
				C1585.9,89.8,1502.9,73,1417.3,73z"/>
			<path fill="none" stroke="#FFFFFF" stroke-width="16" stroke-miterlimit="10" d="M1417.3,1401c-381.8,0-692.4-310.6-692.4-692.4
				c0-382.1,310.6-693,692.4-693s692.4,310.9,692.4,693C2109.7,1090.4,1799.1,1401,1417.3,1401z M1417.3,73
				c-350.2,0-635,285.2-635,635.7c0,350.2,284.9,635,635,635c350.2,0,635-284.9,635-635c0-85.5-16.8-168.6-50-247
				c-32-75.7-77.9-143.7-136.3-202.1c-58.4-58.5-126.3-104.4-201.9-136.5C1585.9,89.8,1502.9,73,1417.3,73z"/>
		</g>
	</g>
</g>
<polygon points="1670.3,794.8 1417.4,541.8 1164.4,794.8 "/>
</svg>
